<?xml version="1.0" encoding="utf-8"?>
<!-- Generator: Adobe Illustrator 25.4.1, SVG Export Plug-In . SVG Version: 6.00 Build 0)  -->
<svg version="1.1" id="Calque_1" xmlns="http://www.w3.org/2000/svg" xmlns:xlink="http://www.w3.org/1999/xlink" x="0px" y="0px"
	 viewBox="0 0 608.5 318.4" style="enable-background:new 0 0 608.5 318.4;" xml:space="preserve">
<style type="text/css">
	.st0{fill:#363636;}
	.st1{fill:#D3E1F4;}
	.st2{fill:#B3CBEA;}
	.st3{fill:#AA75C6;}
	.st4{fill:#7F3996;}
	.st5{fill:#EAF6FF;}
	.st6{fill:#84AEE1;}
	.st7{font-family:'KenyanCoffeeRg-Regular';}
	.st8{font-size:67.5965px;}
</style>
<g>
	<g>
		<g id="Calque_2_00000134939125577601963610000008768954832222339970_">
			<g id="Calque_1-2_00000111169446493981588390000000731500707390800794_">
				<path class="st0" d="M144.2,114.3c-6.1-0.1-11.9,2-16.6,5.8V89.8h-17.5v101.5h17.5v-6.9c5.2,4.7,11.7,7.9,17.2,7.9
					c16.6,0,32.6-14.4,32.6-40C177.3,129.5,160.9,114.3,144.2,114.3z M141.4,173.5c-5.9-0.1-11.4-2.9-15-7.6v-25c3.5-4.9,9-7.8,15-8
					c10,0,16.4,9.4,16.4,20.6C157.8,164.6,151.4,173.5,141.4,173.5z"/>
				<path class="st0" d="M200.3,182.5c0,5.4-3.7,9.7-8.3,9.7c-4.4,0-8.1-4.3-8.1-9.7c0-5.4,3.8-9.7,8.1-9.7S200.3,177.1,200.3,182.5
					z"/>
				<path class="st0" d="M257,89.8v31.5c-4.4-5.2-12-7-17.3-7c-16.9,0-33.1,14.7-33,40.1c0,22.8,16.6,37.9,33.5,37.9
					c6.4-0.3,12.4-2.7,17.1-7l1.3,5.9h15.9V89.8H257z M257,165.4c-3.6,4.9-9.2,8-15.2,8.3c-9.8,0-16.2-9.1-16.2-20.2
					c0-11,6.4-20.6,16.2-20.6c6,0.2,11.6,3.1,15.2,7.9V165.4z"/>
			</g>
		</g>
	</g>
	<g>
		<g>
			<path class="st1" d="M367.3,180.9h-98.1l22.3-36c0.4-0.7,0.6-1.4,0.6-2.2V67.6h52.3v75.1c0,0.8,0.2,1.6,0.6,2.2L367.3,180.9z"/>
			<path class="st2" d="M367.6,181.7h-20.2L324,144.1V98.4c0-6.2-5.1-11.3-11.3-11.3h-21.4V66.8h53v76.1c0,0.8,0.2,1.6,0.6,2.2
				L367.6,181.7z"/>
			<path class="st3" d="M365,177.3h-93.4l-27.3,44.7c-13.6,22.2,2.4,50.8,28.5,50.8h91.2c26.1,0,42-28.5,28.5-50.8L365,177.3z"/>
			<path class="st4" d="M365,177.3h-20.3l27.3,44.7c13.6,22.2-2.4,50.8-28.5,50.8h20.3c26.1,0,42-28.5,28.5-50.8L365,177.3z"/>
			<path class="st5" d="M347.9,73.9h-59.2c-3,0-5.9-1.9-6.8-4.8c-1.5-4.9,2.1-9.3,6.7-9.3h59.2c3,0,5.9,1.9,6.8,4.8
				C356.1,69.4,352.5,73.9,347.9,73.9z"/>
			<path class="st1" d="M354.4,66.8c0,2-0.8,3.7-2.1,5c-1.3,1.3-3.1,2.1-5,2.1h-15c2,0,3.7-0.8,5-2.1c1.3-1.3,2.1-3.1,2.1-5
				c0-3.9-3.2-7.1-7.1-7.1h15C351.3,59.7,354.4,62.9,354.4,66.8L354.4,66.8z"/>
			<g>
				<g>
					<path class="st6" d="M325.9,134l-17.8,0c-1.7,0-3.2-1.3-3.3-3c-0.1-1.8,1.3-3.2,3.1-3.2l17.8,0c1.7,0,3.2,1.3,3.3,3
						C329.1,132.5,327.6,134,325.9,134z"/>
				</g>
				<g>
					<path class="st6" d="M318.9,149H308c-1.7,0-3.2-1.3-3.3-3c-0.1-1.8,1.3-3.2,3.1-3.2h11c1.5,0,3,1,3.2,2.5
						C322.3,147.3,320.8,149,318.9,149z"/>
				</g>
				<g>
					<path class="st6" d="M318.9,163.1H308c-1.7,0-3.2-1.3-3.3-3c-0.1-1.8,1.3-3.2,3.1-3.2l10.9,0c1.7,0,3.2,1.3,3.3,3
						C322.1,161.7,320.6,163.1,318.9,163.1z"/>
				</g>
				<g>
					<path class="st6" d="M318.9,177.3H308c-1.7,0-3.2-1.3-3.3-3c-0.1-1.8,1.3-3.2,3.1-3.2h11c1.5,0,3,1,3.2,2.5
						C322.3,175.6,320.8,177.3,318.9,177.3z"/>
				</g>
				<g>
					<path class="st4" d="M325.9,191.4h-17.8c-1.7,0-3.2-1.3-3.3-3c-0.1-1.8,1.3-3.2,3.1-3.2l17.8,0c1.7,0,3.2,1.3,3.3,3
						C329.1,189.9,327.6,191.4,325.9,191.4z"/>
				</g>
				<g>
					<path class="st4" d="M325.9,248.8h-17.8c-1.7,0-3.2-1.3-3.3-3c-0.1-1.8,1.3-3.2,3.1-3.2h17.8c1.7,0,3.2,1.3,3.3,3
						C329.1,247.4,327.6,248.8,325.9,248.8z"/>
				</g>
				<g>
					<path class="st4" d="M318.9,206.4l-10.9,0c-1.7,0-3.2-1.3-3.3-3c-0.1-1.8,1.3-3.2,3.1-3.2h11c1.5,0,3,1,3.2,2.5
						C322.3,204.7,320.8,206.4,318.9,206.4z"/>
				</g>
				<g>
					<path class="st4" d="M318.9,220.6H308c-1.7,0-3.2-1.3-3.3-3c-0.1-1.8,1.3-3.2,3.1-3.2h11c1.5,0,3,1,3.2,2.5
						C322.3,218.9,320.8,220.6,318.9,220.6z"/>
				</g>
				<g>
					<path class="st4" d="M318.9,234.7l-10.9,0c-1.7,0-3.2-1.3-3.3-3c-0.1-1.8,1.3-3.2,3.1-3.2h11c1.5,0,3,1,3.2,2.5
						C322.3,233,320.8,234.7,318.9,234.7z"/>
				</g>
			</g>
		</g>
	</g>
	<text transform="matrix(1 0 0 1 119.5941 258.5552)" class="st0 st7 st8">Laaab’s</text>
</g>
</svg>
